<?xml version="1.0" encoding="utf-8"?>
<!-- Generator: Adobe Illustrator 19.0.0, SVG Export Plug-In . SVG Version: 6.00 Build 0)  -->
<svg version="1.1" id="Layer_1" xmlns="http://www.w3.org/2000/svg" xmlns:xlink="http://www.w3.org/1999/xlink" x="0px" y="0px"
	 viewBox="0 0 52 52" style="enable-background:new 0 0 52 52;" xml:space="preserve">
<style type="text/css">
	.st0{fill:#3E2B63;}
</style>
<path id="XMLID_5_" class="st0" d="M14.8,12.9c-3.3-0.4-5.6-3.4-5.2-6.7C10,3,13,0.6,16.3,1c3.3,0.4,5.6,3.4,5.2,6.7
	C21.1,11,18.1,13.3,14.8,12.9"/>
<path id="XMLID_4_" class="st0" d="M2.2,12.6L2.2,12.6c1.2-1,3-0.9,4,0.2l5.5,6.2l4.6-3c-0.2,0.6-0.3,1.2-0.3,1.8
	c0,1.2,0.4,2.3,1.1,3.3l0.6,0.8l-3.1,2c-0.9,0.6-1.9,0.9-2.9,0.9c-0.2,0-0.5,0-0.7-0.1c-1.3-0.2-2.5-0.8-3.3-1.8L2,16.6
	C0.9,15.5,1,13.7,2.2,12.6"/>
<path id="XMLID_3_" class="st0" d="M37.3,36.1c0.6-0.4,1.1-1,1.4-1.6c0,0,0-0.1,0-0.1l2.5,5.8l8.3,5.6c1.3,0.9,1.7,2.7,0.8,4
	c-0.9,1.3-2.7,1.7-4,0.8L36.6,44l-2.9-6.8l1.5-0.2C36,36.8,36.7,36.6,37.3,36.1"/>
<path id="XMLID_2_" class="st0" d="M17.1,32l9-1.1l-7.2-9.7l-0.6-0.9c-0.6-0.7-0.8-1.6-0.8-2.4c0-1.4,0.8-2.9,2.1-3.6
	c0.1-0.1,0.3-0.1,0.4-0.2l3.7-1.5l7.7-2.6c0.5-0.2,1.1-0.3,1.7-0.3c0.5,0,1.1,0.1,1.6,0.2c1.1,0.3,2,0.9,2.7,1.8l5.7,6.8
	c1,1.2,0.8,3-0.4,4c-0.5,0.4-1.2,0.7-1.8,0.7c-0.8,0-1.6-0.4-2.2-1l-5.6-6.7l-5.8,1.9l10,13.5c0.2,0.3,0.3,0.6,0.4,0.9
	c0.4,1.7-0.8,3.5-2.6,3.7l-1.9,0.2L19,37.6l3.4,5.6c0.8,1.3,0.4,3.1-0.9,3.9c-0.5,0.3-1,0.4-1.5,0.4c-1,0-1.9-0.5-2.4-1.4l-4.1-6.7
	c-0.9-1.4-1-3.2-0.2-4.7C14,33.3,15.4,32.2,17.1,32"/>
</svg>
