<?xml version="1.0" encoding="utf-8"?>
<!-- Generator: Adobe Illustrator 19.0.0, SVG Export Plug-In . SVG Version: 6.00 Build 0)  -->
<svg version="1.1" id="Layer_1" xmlns="http://www.w3.org/2000/svg" xmlns:xlink="http://www.w3.org/1999/xlink" x="0px" y="0px"
	 viewBox="-21 73 320 220" style="enable-background:new -21 73 320 220;" xml:space="preserve">
<style type="text/css">
	.st0{fill:#FDBE10;}
	.st1{fill:#ED2524;}
	.st2{fill:#412665;}
</style>
<path class="st0" d="M111.6,92.4c33.1,8.4,59.3,34.5,67.7,67.7h8.8c-8.7-37.9-38.6-67.7-76.5-76.5V92.4z"/>
<path class="st1" d="M65.5,273.5c-33.6-8.6-60-35.5-67.9-69.4h-8.8c8.2,38.6,38.3,69.3,76.6,78.2V273.5z"/>
<rect x="172.5" y="220.1" class="st2" width="2.8" height="16.3"/>
<polygon class="st2" points="191.8,236.4 188.9,236.4 181.7,224.8 181.7,236.4 178.8,236.4 178.8,220.1 181.7,220.1 189,231.7 
	189,220.1 191.8,220.1 "/>
<path class="st2" d="M203.6,232.2c0-0.7-0.3-1.3-0.8-1.7c-0.5-0.4-1.4-0.8-2.7-1.2c-1.3-0.4-2.4-0.8-3.1-1.3
	c-1.5-0.9-2.2-2.2-2.2-3.6c0-1.3,0.5-2.4,1.6-3.2s2.5-1.3,4.2-1.3c1.1,0,2.1,0.2,3,0.6c0.9,0.4,1.6,1,2.1,1.8
	c0.5,0.8,0.8,1.6,0.8,2.6h-2.8c0-0.9-0.3-1.5-0.8-2c-0.5-0.5-1.3-0.7-2.3-0.7c-0.9,0-1.6,0.2-2.2,0.6c-0.5,0.4-0.8,0.9-0.8,1.7
	c0,0.6,0.3,1.1,0.8,1.5c0.6,0.4,1.5,0.8,2.7,1.2c1.3,0.4,2.3,0.8,3.1,1.3c0.8,0.5,1.3,1,1.7,1.7c0.4,0.6,0.5,1.4,0.5,2.2
	c0,1.4-0.5,2.4-1.6,3.2c-1,0.8-2.5,1.2-4.2,1.2c-1.2,0-2.3-0.2-3.3-0.7s-1.8-1-2.3-1.8c-0.5-0.8-0.8-1.7-0.8-2.7h2.8
	c0,0.9,0.3,1.6,0.9,2.1c0.6,0.5,1.5,0.8,2.6,0.8c1,0,1.7-0.2,2.2-0.6C203.4,233.4,203.6,232.9,203.6,232.2"/>
<path class="st2" d="M211.8,230.4v6h-2.8v-16.3h6.2c1.8,0,3.3,0.5,4.3,1.4c1.1,0.9,1.6,2.2,1.6,3.8c0,1.6-0.5,2.8-1.6,3.7
	c-1,0.9-2.5,1.3-4.4,1.3H211.8z M211.8,228.1h3.4c1,0,1.8-0.2,2.3-0.7s0.8-1.2,0.8-2.1c0-0.9-0.3-1.6-0.8-2.1
	c-0.5-0.5-1.3-0.8-2.2-0.8h-3.5V228.1z"/>
<rect x="223.8" y="220.1" class="st2" width="2.8" height="16.3"/>
<path class="st2" d="M236,230.1h-3.2v6.3h-2.8v-16.3h5.7c1.9,0,3.3,0.4,4.4,1.3c1,0.8,1.5,2.1,1.5,3.7c0,1.1-0.3,2-0.8,2.7
	c-0.5,0.7-1.3,1.3-2.2,1.7l3.7,6.8v0.1h-3L236,230.1z M232.9,227.9h2.9c1,0,1.7-0.2,2.2-0.7c0.5-0.5,0.8-1.1,0.8-2
	c0-0.9-0.2-1.5-0.7-2c-0.5-0.5-1.2-0.7-2.2-0.7h-3V227.9z"/>
<path class="st2" d="M253.5,232.6h-6.3l-1.3,3.8h-2.9l6.2-16.3h2.5l6.2,16.3h-3L253.5,232.6z M248,230.3h4.7l-2.4-6.8L248,230.3z"/>
<polygon class="st2" points="270,222.4 265,222.4 265,236.4 262.2,236.4 262.2,222.4 257.1,222.4 257.1,220.1 270,220.1 "/>
<path class="st2" d="M284.1,220.1V231c0,1.7-0.6,3.1-1.7,4.1c-1.1,1-2.6,1.5-4.4,1.5c-1.9,0-3.3-0.5-4.4-1.5c-1.1-1-1.6-2.4-1.6-4.1
	v-10.9h2.8V231c0,1.1,0.3,1.9,0.8,2.5c0.6,0.6,1.4,0.9,2.4,0.9c2.2,0,3.3-1.1,3.3-3.4v-10.8H284.1z"/>
<path class="st2" d="M295.6,232.2c0-0.7-0.3-1.3-0.8-1.7c-0.5-0.4-1.4-0.8-2.7-1.2c-1.3-0.4-2.4-0.8-3.1-1.3
	c-1.5-0.9-2.2-2.2-2.2-3.6c0-1.3,0.5-2.4,1.6-3.2c1.1-0.9,2.5-1.3,4.2-1.3c1.1,0,2.1,0.2,3,0.6c0.9,0.4,1.6,1,2.1,1.8
	c0.5,0.8,0.8,1.6,0.8,2.6h-2.8c0-0.9-0.3-1.5-0.8-2c-0.5-0.5-1.3-0.7-2.3-0.7c-0.9,0-1.6,0.2-2.2,0.6c-0.5,0.4-0.8,0.9-0.8,1.7
	c0,0.6,0.3,1.1,0.8,1.5c0.6,0.4,1.5,0.8,2.7,1.2c1.3,0.4,2.3,0.8,3.1,1.3c0.8,0.5,1.3,1,1.7,1.7c0.4,0.6,0.5,1.4,0.5,2.2
	c0,1.4-0.5,2.4-1.6,3.2c-1,0.8-2.5,1.2-4.2,1.2c-1.2,0-2.3-0.2-3.2-0.7c-1-0.4-1.8-1-2.3-1.8c-0.5-0.8-0.8-1.7-0.8-2.7h2.8
	c0,0.9,0.3,1.6,0.9,2.1c0.6,0.5,1.5,0.8,2.6,0.8c1,0,1.7-0.2,2.2-0.6C295.4,233.4,295.6,232.9,295.6,232.2"/>
<path class="st2" d="M180.9,259.7c0-0.7-0.3-1.3-0.8-1.7c-0.5-0.4-1.4-0.8-2.7-1.2c-1.3-0.4-2.4-0.8-3.1-1.3
	c-1.5-0.9-2.2-2.2-2.2-3.6c0-1.3,0.5-2.4,1.6-3.2s2.5-1.3,4.2-1.3c1.1,0,2.1,0.2,3,0.6c0.9,0.4,1.6,1,2.1,1.8
	c0.5,0.8,0.8,1.6,0.8,2.6h-2.8c0-0.9-0.3-1.5-0.8-2c-0.5-0.5-1.3-0.7-2.3-0.7c-0.9,0-1.6,0.2-2.2,0.6c-0.5,0.4-0.8,0.9-0.8,1.7
	c0,0.6,0.3,1.1,0.8,1.5c0.6,0.4,1.5,0.8,2.7,1.2c1.3,0.4,2.3,0.8,3.1,1.3c0.8,0.5,1.3,1,1.7,1.7c0.4,0.6,0.5,1.4,0.5,2.2
	c0,1.4-0.5,2.4-1.6,3.2c-1,0.8-2.5,1.2-4.2,1.2c-1.2,0-2.3-0.2-3.2-0.7c-1-0.4-1.8-1-2.3-1.8c-0.5-0.8-0.8-1.7-0.8-2.7h2.8
	c0,0.9,0.3,1.6,0.9,2.1c0.6,0.5,1.5,0.8,2.6,0.8c1,0,1.7-0.2,2.2-0.6C180.6,260.9,180.9,260.4,180.9,259.7"/>
<path class="st2" d="M189,257.9v6h-2.8v-16.3h6.2c1.8,0,3.3,0.5,4.3,1.4c1.1,0.9,1.6,2.2,1.6,3.8c0,1.6-0.5,2.8-1.6,3.7
	c-1,0.9-2.5,1.3-4.4,1.3H189z M189,255.6h3.4c1,0,1.8-0.2,2.3-0.7c0.5-0.5,0.8-1.2,0.8-2.1c0-0.9-0.3-1.6-0.8-2.1
	c-0.5-0.5-1.3-0.8-2.2-0.8H189V255.6z"/>
<path class="st2" d="M213.9,256.2c0,1.6-0.3,3-0.8,4.2c-0.6,1.2-1.3,2.1-2.4,2.8c-1,0.6-2.2,1-3.5,1c-1.3,0-2.5-0.3-3.5-1
	c-1-0.6-1.8-1.6-2.4-2.8c-0.6-1.2-0.8-2.6-0.9-4.1v-0.9c0-1.6,0.3-3,0.8-4.2c0.6-1.2,1.4-2.1,2.4-2.8c1-0.6,2.2-1,3.5-1
	c1.3,0,2.5,0.3,3.5,1c1,0.6,1.8,1.6,2.4,2.8c0.6,1.2,0.8,2.6,0.9,4.2V256.2z M211,255.3c0-1.8-0.3-3.2-1-4.1c-0.7-1-1.7-1.4-2.9-1.4
	c-1.2,0-2.2,0.5-2.9,1.4c-0.7,1-1,2.3-1.1,4.1v0.9c0,1.8,0.3,3.2,1,4.2c0.7,1,1.7,1.5,2.9,1.5c1.3,0,2.2-0.5,2.9-1.4
	c0.7-1,1-2.4,1-4.2V255.3z"/>
<path class="st2" d="M222.7,257.6h-3.2v6.3h-2.8v-16.3h5.7c1.9,0,3.3,0.4,4.4,1.3c1,0.8,1.5,2.1,1.5,3.7c0,1.1-0.3,2-0.8,2.7
	c-0.5,0.7-1.3,1.3-2.2,1.7l3.7,6.8v0.1h-3L222.7,257.6z M219.5,255.4h2.9c1,0,1.7-0.2,2.2-0.7c0.5-0.5,0.8-1.1,0.8-2
	c0-0.9-0.2-1.5-0.7-2c-0.5-0.5-1.2-0.7-2.2-0.7h-3V255.4z"/>
<polygon class="st2" points="242.2,249.9 237.1,249.9 237.1,263.9 234.3,263.9 234.3,249.9 229.3,249.9 229.3,247.6 242.2,247.6 "/>
<path class="st2" d="M252.7,259.7c0-0.7-0.3-1.3-0.8-1.7c-0.5-0.4-1.4-0.8-2.7-1.2c-1.3-0.4-2.4-0.8-3.1-1.3
	c-1.5-0.9-2.2-2.2-2.2-3.6c0-1.3,0.5-2.4,1.6-3.2c1.1-0.9,2.5-1.3,4.2-1.3c1.1,0,2.1,0.2,3,0.6c0.9,0.4,1.6,1,2.1,1.8
	c0.5,0.8,0.8,1.6,0.8,2.6h-2.8c0-0.9-0.3-1.5-0.8-2c-0.5-0.5-1.3-0.7-2.3-0.7c-0.9,0-1.6,0.2-2.2,0.6c-0.5,0.4-0.8,0.9-0.8,1.7
	c0,0.6,0.3,1.1,0.8,1.5c0.6,0.4,1.5,0.8,2.7,1.2c1.3,0.4,2.3,0.8,3.1,1.3c0.8,0.5,1.3,1,1.7,1.7c0.4,0.6,0.5,1.4,0.5,2.2
	c0,1.4-0.5,2.4-1.6,3.2c-1,0.8-2.5,1.2-4.2,1.2c-1.2,0-2.3-0.2-3.3-0.7c-1-0.4-1.8-1-2.3-1.8c-0.5-0.8-0.8-1.7-0.8-2.7h2.8
	c0,0.9,0.3,1.6,0.9,2.1c0.6,0.5,1.5,0.8,2.6,0.8c1,0,1.7-0.2,2.2-0.6C252.4,260.9,252.7,260.4,252.7,259.7"/>
<path class="st2" d="M172.4,291.4v-16.3h4.8c1.4,0,2.7,0.3,3.8,1c1.1,0.6,2,1.6,2.6,2.7c0.6,1.2,0.9,2.5,0.9,4.1v0.8
	c0,1.5-0.3,2.9-0.9,4.1c-0.6,1.2-1.5,2.1-2.6,2.7c-1.1,0.6-2.4,1-3.9,1H172.4z M175.2,277.4v11.8h1.8c1.5,0,2.6-0.5,3.4-1.4
	c0.8-0.9,1.2-2.3,1.2-4v-0.9c0-1.8-0.4-3.1-1.2-4.1c-0.8-0.9-1.9-1.4-3.3-1.4H175.2z"/>
<rect x="187.5" y="275.1" class="st2" width="2.8" height="16.3"/>
<path class="st2" d="M202.3,287.2c0-0.7-0.3-1.3-0.8-1.7c-0.5-0.4-1.4-0.8-2.7-1.2c-1.3-0.4-2.4-0.8-3.1-1.3
	c-1.5-0.9-2.2-2.1-2.2-3.6c0-1.3,0.5-2.4,1.6-3.2c1.1-0.9,2.5-1.3,4.2-1.3c1.1,0,2.1,0.2,3,0.6c0.9,0.4,1.6,1,2.1,1.8
	c0.5,0.8,0.8,1.6,0.8,2.6h-2.8c0-0.9-0.3-1.5-0.8-2c-0.5-0.5-1.3-0.7-2.3-0.7c-0.9,0-1.6,0.2-2.2,0.6c-0.5,0.4-0.8,0.9-0.8,1.7
	c0,0.6,0.3,1.1,0.8,1.5c0.6,0.4,1.5,0.8,2.7,1.2c1.3,0.4,2.3,0.8,3.1,1.3c0.8,0.5,1.3,1,1.7,1.7c0.4,0.6,0.5,1.4,0.5,2.2
	c0,1.4-0.5,2.4-1.6,3.2c-1,0.8-2.5,1.2-4.2,1.2c-1.2,0-2.3-0.2-3.3-0.7c-1-0.4-1.8-1-2.3-1.8c-0.5-0.8-0.8-1.7-0.8-2.7h2.8
	c0,0.9,0.3,1.6,0.9,2.1c0.6,0.5,1.5,0.8,2.6,0.8c1,0,1.7-0.2,2.2-0.6C202.1,288.4,202.3,287.9,202.3,287.2"/>
<polygon class="st2" points="219.4,277.4 214.3,277.4 214.3,291.4 211.5,291.4 211.5,277.4 206.5,277.4 206.5,275.1 219.4,275.1 "/>
<path class="st2" d="M227.5,285.1h-3.2v6.3h-2.8v-16.3h5.7c1.9,0,3.3,0.4,4.4,1.3c1,0.8,1.5,2.1,1.5,3.7c0,1.1-0.3,2-0.8,2.7
	c-0.5,0.7-1.3,1.3-2.2,1.7l3.7,6.8v0.1h-3L227.5,285.1z M224.4,282.9h2.9c1,0,1.7-0.2,2.2-0.7c0.5-0.5,0.8-1.1,0.8-2
	c0-0.9-0.2-1.5-0.7-2c-0.5-0.5-1.2-0.7-2.2-0.7h-3V282.9z"/>
<rect x="236" y="275.1" class="st2" width="2.8" height="16.3"/>
<path class="st2" d="M254.8,286.1c-0.2,1.7-0.8,3.1-1.9,4.1c-1.1,1-2.6,1.5-4.5,1.5c-1.3,0-2.4-0.3-3.4-0.9c-1-0.6-1.8-1.5-2.3-2.6
	c-0.5-1.1-0.8-2.5-0.8-4v-1.5c0-1.5,0.3-2.9,0.8-4.1c0.5-1.2,1.3-2.1,2.3-2.7c1-0.6,2.2-1,3.5-1c1.8,0,3.2,0.5,4.3,1.5
	c1.1,1,1.7,2.4,1.9,4.1h-2.8c-0.1-1.2-0.5-2-1-2.5c-0.5-0.5-1.4-0.8-2.4-0.8c-1.2,0-2.2,0.5-2.8,1.4c-0.7,0.9-1,2.2-1,4v1.4
	c0,1.8,0.3,3.1,0.9,4c0.6,0.9,1.6,1.4,2.8,1.4c1.1,0,1.9-0.3,2.5-0.7c0.6-0.5,0.9-1.3,1.1-2.5H254.8z"/>
<polygon class="st2" points="268.7,277.4 263.7,277.4 263.7,291.4 260.8,291.4 260.8,277.4 255.8,277.4 255.8,275.1 268.7,275.1 "/>
<path class="st2" d="M157.3,182c0-12.9-10.5-23.5-23.5-23.5H108l-8.6,10.6h31.9c7.1,0,13,5.8,13,13c0,7.1-5.8,13-13,13h-6.2h-1.4
	v-1.4V177h-14.4v28.5h24.6C146.8,205.5,157.3,195,157.3,182"/>
<rect x="26.3" y="177" class="st2" width="14.3" height="28.5"/>
<path class="st2" d="M64.3,158.5c-6.5,0-12.2,4.5-13.8,10.6h14.9h23.5l8.7-10.6H64.3z"/>
<path class="st2" d="M99.2,191.3c0-7.8-6.4-14.2-14.2-14.2H65.4c-0.1,0-0.3,0-0.3,0H50.6c1.8,6,7.3,10.2,13.7,10.2h18.9
	c2.2,0,3.9,1.8,3.9,3.9c0,2.2-1.8,3.9-3.9,3.9H58.6l-8.7,10.4H85C92.8,205.5,99.2,199.1,99.2,191.3"/>
<path class="st2" d="M-9.1,170.1c-6.5,0-11.9,5.3-11.9,11.9c0,6.5,5.3,11.9,11.9,11.9c6.5,0,11.9-5.3,11.9-11.9
	C2.8,175.5-2.5,170.1-9.1,170.1"/>
<path class="st2" d="M185.2,170.1c-6.5,0-11.9,5.3-11.9,11.9c0,6.5,5.3,11.9,11.9,11.9c6.5,0,11.9-5.3,11.9-11.9
	C197.1,175.5,191.8,170.1,185.2,170.1"/>
<path class="st2" d="M76.2,279.2c0,6.5,5.3,11.9,11.9,11.9c6.5,0,11.9-5.3,11.9-11.9c0-6.5-5.3-11.9-11.9-11.9
	C81.6,267.3,76.2,272.6,76.2,279.2"/>
<path class="st2" d="M76.2,84.9c0,6.5,5.3,11.9,11.9,11.9c6.5,0,11.9-5.3,11.9-11.9c0-6.5-5.3-11.9-11.9-11.9
	C81.6,73,76.2,78.3,76.2,84.9"/>
<path class="st2" d="M41,164.4c0-4.1-3.4-7.5-7.5-7.5c-4.1,0-7.5,3.4-7.5,7.5c0,4.1,3.4,7.5,7.5,7.5C37.6,171.9,41,168.5,41,164.4"
	/>
</svg>
